%YAML 1.1
%TAG !u! tag:unity3d.com,2011:
--- !u!29 &1
OcclusionCullingSettings:
  m_ObjectHideFlags: 0
  serializedVersion: 2
  m_OcclusionBakeSettings:
    smallestOccluder: 5
    smallestHole: 0.25
    backfaceThreshold: 100
  m_SceneGUID: 00000000000000000000000000000000
  m_OcclusionCullingData: {fileID: 0}
--- !u!104 &2
RenderSettings:
  m_ObjectHideFlags: 0
  serializedVersion: 8
  m_Fog: 0
  m_FogColor: {r: 0.5, g: 0.5, b: 0.5, a: 1}
  m_FogMode: 3
  m_FogDensity: 0.01
  m_LinearFogStart: 0
  m_LinearFogEnd: 300
  m_AmbientSkyColor: {r: 0.212, g: 0.227, b: 0.259, a: 1}
  m_AmbientEquatorColor: {r: 0.114, g: 0.125, b: 0.133, a: 1}
  m_AmbientGroundColor: {r: 0.047, g: 0.043, b: 0.035, a: 1}
  m_AmbientIntensity: 1
  m_AmbientMode: 0
  m_SubtractiveShadowColor: {r: 0.42, g: 0.478, b: 0.627, a: 1}
  m_SkyboxMaterial: {fileID: 10304, guid: 0000000000000000f000000000000000, type: 0}
  m_HaloStrength: 0.5
  m_FlareStrength: 1
  m_FlareFadeSpeed: 3
  m_HaloTexture: {fileID: 0}
  m_SpotCookie: {fileID: 10001, guid: 0000000000000000e000000000000000, type: 0}
  m_DefaultReflectionMode: 0
  m_DefaultReflectionResolution: 128
  m_ReflectionBounces: 1
  m_ReflectionIntensity: 1
  m_CustomReflection: {fileID: 0}
  m_Sun: {fileID: 0}
  m_IndirectSpecularColor: {r: 0, g: 0, b: 0, a: 1}
--- !u!157 &3
LightmapSettings:
  m_ObjectHideFlags: 0
  serializedVersion: 11
  m_GIWorkflowMode: 0
  m_GISettings:
    serializedVersion: 2
    m_BounceScale: 1
    m_IndirectOutputScale: 1
    m_AlbedoBoost: 1
    m_TemporalCoherenceThreshold: 1
    m_EnvironmentLightingMode: 0
    m_EnableBakedLightmaps: 1
    m_EnableRealtimeLightmaps: 1
  m_LightmapEditorSettings:
    serializedVersion: 9
    m_Resolution: 2
    m_BakeResolution: 40
    m_TextureWidth: 1024
    m_TextureHeight: 1024
    m_AO: 0
    m_AOMaxDistance: 1
    m_CompAOExponent: 1
    m_CompAOExponentDirect: 0
    m_Padding: 2
    m_LightmapParameters: {fileID: 0}
    m_LightmapsBakeMode: 1
    m_TextureCompression: 1
    m_FinalGather: 0
    m_FinalGatherFiltering: 1
    m_FinalGatherRayCount: 256
    m_ReflectionCompression: 2
    m_MixedBakeMode: 1
    m_BakeBackend: 0
    m_PVRSampling: 1
    m_PVRDirectSampleCount: 32
    m_PVRSampleCount: 500
    m_PVRBounces: 2
    m_PVRFilterTypeDirect: 0
    m_PVRFilterTypeIndirect: 0
    m_PVRFilterTypeAO: 0
    m_PVRFilteringMode: 0
    m_PVRCulling: 1
    m_PVRFilteringGaussRadiusDirect: 1
    m_PVRFilteringGaussRadiusIndirect: 5
    m_PVRFilteringGaussRadiusAO: 2
    m_PVRFilteringAtrousPositionSigmaDirect: 0.5
    m_PVRFilteringAtrousPositionSigmaIndirect: 2
    m_PVRFilteringAtrousPositionSigmaAO: 1
    m_ShowResolutionOverlay: 1
  m_LightingDataAsset: {fileID: 0}
  m_UseShadowmask: 0
--- !u!196 &4
NavMeshSettings:
  serializedVersion: 2
  m_ObjectHideFlags: 0
  m_BuildSettings:
    serializedVersion: 2
    agentTypeID: 0
    agentRadius: 0.5
    agentHeight: 2
    agentSlope: 45
    agentClimb: 0.4
    ledgeDropHeight: 0
    maxJumpAcrossDistance: 0
    minRegionArea: 2
    manualCellSize: 0
    cellSize: 0.16666667
    manualTileSize: 0
    tileSize: 256
    accuratePlacement: 0
    debug:
      m_Flags: 0
  m_NavMeshData: {fileID: 0}
--- !u!1 &84148735
GameObject:
  m_ObjectHideFlags: 0
  m_PrefabParentObject: {fileID: 1000012150479834, guid: a73983cbfc3f2c94e9a87d90fc6d5edb,
    type: 2}
  m_PrefabInternal: {fileID: 1441829221}
  serializedVersion: 5
  m_Component:
  - component: {fileID: 84148739}
  - component: {fileID: 84148738}
  - component: {fileID: 84148737}
  - component: {fileID: 84148736}
  m_Layer: 0
  m_Name: ATM_Coral
  m_TagString: Untagged
  m_Icon: {fileID: 0}
  m_NavMeshLayer: 0
  m_StaticEditorFlags: 0
  m_IsActive: 1
--- !u!64 &84148736
MeshCollider:
  m_ObjectHideFlags: 0
  m_PrefabParentObject: {fileID: 64000010011593714, guid: a73983cbfc3f2c94e9a87d90fc6d5edb,
    type: 2}
  m_PrefabInternal: {fileID: 1441829221}
  m_GameObject: {fileID: 84148735}
  m_Material: {fileID: 0}
  m_IsTrigger: 0
  m_Enabled: 1
  serializedVersion: 3
  m_Convex: 0
  m_CookingOptions: 14
  m_SkinWidth: 0.01
  m_Mesh: {fileID: 4300000, guid: 9c9c01ea5d9bcf74db52c9818f202508, type: 3}
--- !u!23 &84148737
MeshRenderer:
  m_ObjectHideFlags: 0
  m_PrefabParentObject: {fileID: 23000013093532542, guid: a73983cbfc3f2c94e9a87d90fc6d5edb,
    type: 2}
  m_PrefabInternal: {fileID: 1441829221}
  m_GameObject: {fileID: 84148735}
  m_Enabled: 1
  m_CastShadows: 1
  m_ReceiveShadows: 1
  m_DynamicOccludee: 1
  m_MotionVectors: 1
  m_LightProbeUsage: 1
  m_ReflectionProbeUsage: 1
  m_Materials:
  - {fileID: 2100000, guid: 9d32fc581270e7240a59971669db98f3, type: 2}
  m_StaticBatchInfo:
    firstSubMesh: 0
    subMeshCount: 0
  m_StaticBatchRoot: {fileID: 0}
  m_ProbeAnchor: {fileID: 0}
  m_LightProbeVolumeOverride: {fileID: 0}
  m_ScaleInLightmap: 1
  m_PreserveUVs: 0
  m_IgnoreNormalsForChartDetection: 0
  m_ImportantGI: 0
  m_StitchLightmapSeams: 0
  m_SelectedEditorRenderState: 3
  m_MinimumChartSize: 4
  m_AutoUVMaxDistance: 0.5
  m_AutoUVMaxAngle: 89
  m_LightmapParameters: {fileID: 0}
  m_SortingLayerID: 0
  m_SortingLayer: 0
  m_SortingOrder: 0
--- !u!33 &84148738
MeshFilter:
  m_ObjectHideFlags: 0
  m_PrefabParentObject: {fileID: 33000010161662642, guid: a73983cbfc3f2c94e9a87d90fc6d5edb,
    type: 2}
  m_PrefabInternal: {fileID: 1441829221}
  m_GameObject: {fileID: 84148735}
  m_Mesh: {fileID: 4300000, guid: 9c9c01ea5d9bcf74db52c9818f202508, type: 3}
--- !u!4 &84148739
Transform:
  m_ObjectHideFlags: 0
  m_PrefabParentObject: {fileID: 4000013448728562, guid: a73983cbfc3f2c94e9a87d90fc6d5edb,
    type: 2}
  m_PrefabInternal: {fileID: 1441829221}
  m_GameObject: {fileID: 84148735}
  m_LocalRotation: {x: 0, y: 0, z: 0, w: 1}
  m_LocalPosition: {x: -3, y: 0, z: 0}
  m_LocalScale: {x: 1, y: 1, z: 1}
  m_Children: []
  m_Father: {fileID: 0}
  m_RootOrder: 8
  m_LocalEulerAnglesHint: {x: 0, y: 0, z: 0}
--- !u!1 &92786961
GameObject:
  m_ObjectHideFlags: 0
  m_PrefabParentObject: {fileID: 1000013774562002, guid: 4ed252e36730dcb44ba5df09d823c485,
    type: 2}
  m_PrefabInternal: {fileID: 107616942}
  serializedVersion: 5
  m_Component:
  - component: {fileID: 92786965}
  - component: {fileID: 92786964}
  - component: {fileID: 92786963}
  - component: {fileID: 92786962}
  m_Layer: 0
  m_Name: ATM_Beige
  m_TagString: Untagged
  m_Icon: {fileID: 0}
  m_NavMeshLayer: 0
  m_StaticEditorFlags: 0
  m_IsActive: 1
--- !u!64 &92786962
MeshCollider:
  m_ObjectHideFlags: 0
  m_PrefabParentObject: {fileID: 64000013538627956, guid: 4ed252e36730dcb44ba5df09d823c485,
    type: 2}
  m_PrefabInternal: {fileID: 107616942}
  m_GameObject: {fileID: 92786961}
  m_Material: {fileID: 0}
  m_IsTrigger: 0
  m_Enabled: 1
  serializedVersion: 3
  m_Convex: 0
  m_CookingOptions: 14
  m_SkinWidth: 0.01
  m_Mesh: {fileID: 4300000, guid: 9c9c01ea5d9bcf74db52c9818f202508, type: 3}
--- !u!23 &92786963
MeshRenderer:
  m_ObjectHideFlags: 0
  m_PrefabParentObject: {fileID: 23000010130885442, guid: 4ed252e36730dcb44ba5df09d823c485,
    type: 2}
  m_PrefabInternal: {fileID: 107616942}
  m_GameObject: {fileID: 92786961}
  m_Enabled: 1
  m_CastShadows: 1
  m_ReceiveShadows: 1
  m_DynamicOccludee: 1
  m_MotionVectors: 1
  m_LightProbeUsage: 1
  m_ReflectionProbeUsage: 1
  m_Materials:
  - {fileID: 2100000, guid: ce03f7408cf481d4dbca58fd123080fc, type: 2}
  m_StaticBatchInfo:
    firstSubMesh: 0
    subMeshCount: 0
  m_StaticBatchRoot: {fileID: 0}
  m_ProbeAnchor: {fileID: 0}
  m_LightProbeVolumeOverride: {fileID: 0}
  m_ScaleInLightmap: 1
  m_PreserveUVs: 0
  m_IgnoreNormalsForChartDetection: 0
  m_ImportantGI: 0
  m_StitchLightmapSeams: 0
  m_SelectedEditorRenderState: 3
  m_MinimumChartSize: 4
  m_AutoUVMaxDistance: 0.5
  m_AutoUVMaxAngle: 89
  m_LightmapParameters: {fileID: 0}
  m_SortingLayerID: 0
  m_SortingLayer: 0
  m_SortingOrder: 0
--- !u!33 &92786964
MeshFilter:
  m_ObjectHideFlags: 0
  m_PrefabParentObject: {fileID: 33000010613709406, guid: 4ed252e36730dcb44ba5df09d823c485,
    type: 2}
  m_PrefabInternal: {fileID: 107616942}
  m_GameObject: {fileID: 92786961}
  m_Mesh: {fileID: 4300000, guid: 9c9c01ea5d9bcf74db52c9818f202508, type: 3}
--- !u!4 &92786965
Transform:
  m_ObjectHideFlags: 0
  m_PrefabParentObject: {fileID: 4000012354347228, guid: 4ed252e36730dcb44ba5df09d823c485,
    type: 2}
  m_PrefabInternal: {fileID: 107616942}
  m_GameObject: {fileID: 92786961}
  m_LocalRotation: {x: 0, y: 0, z: 0, w: 1}
  m_LocalPosition: {x: 0, y: 0, z: 0}
  m_LocalScale: {x: 1, y: 1, z: 1}
  m_Children: []
  m_Father: {fileID: 0}
  m_RootOrder: 10
  m_LocalEulerAnglesHint: {x: 0, y: 0, z: 0}
--- !u!1001 &107616942
Prefab:
  m_ObjectHideFlags: 0
  serializedVersion: 2
  m_Modification:
    m_TransformParent: {fileID: 0}
    m_Modifications:
    - target: {fileID: 4000012354347228, guid: 4ed252e36730dcb44ba5df09d823c485, type: 2}
      propertyPath: m_LocalPosition.x
      value: 0
      objectReference: {fileID: 0}
    - target: {fileID: 4000012354347228, guid: 4ed252e36730dcb44ba5df09d823c485, type: 2}
      propertyPath: m_LocalPosition.y
      value: 0
      objectReference: {fileID: 0}
    - target: {fileID: 4000012354347228, guid: 4ed252e36730dcb44ba5df09d823c485, type: 2}
      propertyPath: m_LocalPosition.z
      value: 0
      objectReference: {fileID: 0}
    - target: {fileID: 4000012354347228, guid: 4ed252e36730dcb44ba5df09d823c485, type: 2}
      propertyPath: m_LocalRotation.x
      value: 0
      objectReference: {fileID: 0}
    - target: {fileID: 4000012354347228, guid: 4ed252e36730dcb44ba5df09d823c485, type: 2}
      propertyPath: m_LocalRotation.y
      value: 0
      objectReference: {fileID: 0}
    - target: {fileID: 4000012354347228, guid: 4ed252e36730dcb44ba5df09d823c485, type: 2}
      propertyPath: m_LocalRotation.z
      value: 0
      objectReference: {fileID: 0}
    - target: {fileID: 4000012354347228, guid: 4ed252e36730dcb44ba5df09d823c485, type: 2}
      propertyPath: m_LocalRotation.w
      value: 1
      objectReference: {fileID: 0}
    - target: {fileID: 4000012354347228, guid: 4ed252e36730dcb44ba5df09d823c485, type: 2}
      propertyPath: m_RootOrder
      value: 10
      objectReference: {fileID: 0}
    - target: {fileID: 23000010130885442, guid: 4ed252e36730dcb44ba5df09d823c485,
        type: 2}
      propertyPath: m_Enabled
      value: 1
      objectReference: {fileID: 0}
    - target: {fileID: 23000010130885442, guid: 4ed252e36730dcb44ba5df09d823c485,
        type: 2}
      propertyPath: m_ReceiveShadows
      value: 1
      objectReference: {fileID: 0}
    - target: {fileID: 4000012354347228, guid: 4ed252e36730dcb44ba5df09d823c485, type: 2}
      propertyPath: m_LocalEulerAnglesHint.y
      value: 0
      objectReference: {fileID: 0}
    m_RemovedComponents: []
  m_ParentPrefab: {fileID: 100100000, guid: 4ed252e36730dcb44ba5df09d823c485, type: 2}
  m_RootGameObject: {fileID: 92786961}
  m_IsPrefabParent: 0
--- !u!1001 &390094553
Prefab:
  m_ObjectHideFlags: 0
  serializedVersion: 2
  m_Modification:
    m_TransformParent: {fileID: 0}
    m_Modifications:
    - target: {fileID: 4000010658531238, guid: e2cfa0db9aa4a7545a6ab6b61088ceab, type: 2}
      propertyPath: m_LocalPosition.x
      value: -4.5
      objectReference: {fileID: 0}
    - target: {fileID: 4000010658531238, guid: e2cfa0db9aa4a7545a6ab6b61088ceab, type: 2}
      propertyPath: m_LocalPosition.y
      value: 0
      objectReference: {fileID: 0}
    - target: {fileID: 4000010658531238, guid: e2cfa0db9aa4a7545a6ab6b61088ceab, type: 2}
      propertyPath: m_LocalPosition.z
      value: 0
      objectReference: {fileID: 0}
    - target: {fileID: 4000010658531238, guid: e2cfa0db9aa4a7545a6ab6b61088ceab, type: 2}
      propertyPath: m_LocalRotation.x
      value: 0
      objectReference: {fileID: 0}
    - target: {fileID: 4000010658531238, guid: e2cfa0db9aa4a7545a6ab6b61088ceab, type: 2}
      propertyPath: m_LocalRotation.y
      value: 0
      objectReference: {fileID: 0}
    - target: {fileID: 4000010658531238, guid: e2cfa0db9aa4a7545a6ab6b61088ceab, type: 2}
      propertyPath: m_LocalRotation.z
      value: 0
      objectReference: {fileID: 0}
    - target: {fileID: 4000010658531238, guid: e2cfa0db9aa4a7545a6ab6b61088ceab, type: 2}
      propertyPath: m_LocalRotation.w
      value: 1
      objectReference: {fileID: 0}
    - target: {fileID: 4000010658531238, guid: e2cfa0db9aa4a7545a6ab6b61088ceab, type: 2}
      propertyPath: m_RootOrder
      value: 7
      objectReference: {fileID: 0}
    - target: {fileID: 23000013255748716, guid: e2cfa0db9aa4a7545a6ab6b61088ceab,
        type: 2}
      propertyPath: m_Enabled
      value: 1
      objectReference: {fileID: 0}
    - target: {fileID: 4000010658531238, guid: e2cfa0db9aa4a7545a6ab6b61088ceab, type: 2}
      propertyPath: m_LocalEulerAnglesHint.y
      value: 0
      objectReference: {fileID: 0}
    m_RemovedComponents: []
  m_ParentPrefab: {fileID: 100100000, guid: e2cfa0db9aa4a7545a6ab6b61088ceab, type: 2}
  m_RootGameObject: {fileID: 2066570270}
  m_IsPrefabParent: 0
--- !u!1001 &463046621
Prefab:
  m_ObjectHideFlags: 0
  serializedVersion: 2
  m_Modification:
    m_TransformParent: {fileID: 0}
    m_Modifications:
    - target: {fileID: 4000013233977504, guid: c62700998e152c04caf87b3620ca2fee, type: 2}
      propertyPath: m_LocalPosition.x
      value: -13.5
      objectReference: {fileID: 0}
    - target: {fileID: 4000013233977504, guid: c62700998e152c04caf87b3620ca2fee, type: 2}
      propertyPath: m_LocalPosition.y
      value: 0
      objectReference: {fileID: 0}
    - target: {fileID: 4000013233977504, guid: c62700998e152c04caf87b3620ca2fee, type: 2}
      propertyPath: m_LocalPosition.z
      value: 0
      objectReference: {fileID: 0}
    - target: {fileID: 4000013233977504, guid: c62700998e152c04caf87b3620ca2fee, type: 2}
      propertyPath: m_LocalRotation.x
      value: 0
      objectReference: {fileID: 0}
    - target: {fileID: 4000013233977504, guid: c62700998e152c04caf87b3620ca2fee, type: 2}
      propertyPath: m_LocalRotation.y
      value: 0
      objectReference: {fileID: 0}
    - target: {fileID: 4000013233977504, guid: c62700998e152c04caf87b3620ca2fee, type: 2}
      propertyPath: m_LocalRotation.z
      value: 0
      objectReference: {fileID: 0}
    - target: {fileID: 4000013233977504, guid: c62700998e152c04caf87b3620ca2fee, type: 2}
      propertyPath: m_LocalRotation.w
      value: 1
      objectReference: {fileID: 0}
    - target: {fileID: 4000013233977504, guid: c62700998e152c04caf87b3620ca2fee, type: 2}
      propertyPath: m_RootOrder
      value: 1
      objectReference: {fileID: 0}
    - target: {fileID: 23000013163389464, guid: c62700998e152c04caf87b3620ca2fee,
        type: 2}
      propertyPath: m_Enabled
      value: 1
      objectReference: {fileID: 0}
    - target: {fileID: 4000013233977504, guid: c62700998e152c04caf87b3620ca2fee, type: 2}
      propertyPath: m_LocalEulerAnglesHint.y
      value: 0
      objectReference: {fileID: 0}
    m_RemovedComponents: []
  m_ParentPrefab: {fileID: 100100000, guid: c62700998e152c04caf87b3620ca2fee, type: 2}
  m_RootGameObject: {fileID: 1335504179}
  m_IsPrefabParent: 0
--- !u!1 &526269004
GameObject:
  m_ObjectHideFlags: 0
  m_PrefabParentObject: {fileID: 0}
  m_PrefabInternal: {fileID: 0}
  serializedVersion: 5
  m_Component:
  - component: {fileID: 526269009}
  - component: {fileID: 526269008}
  - component: {fileID: 526269007}
  - component: {fileID: 526269006}
  - component: {fileID: 526269005}
  m_Layer: 0
  m_Name: Main Camera
  m_TagString: MainCamera
  m_Icon: {fileID: 0}
  m_NavMeshLayer: 0
  m_StaticEditorFlags: 0
  m_IsActive: 1
--- !u!81 &526269005
AudioListener:
  m_ObjectHideFlags: 0
  m_PrefabParentObject: {fileID: 0}
  m_PrefabInternal: {fileID: 0}
  m_GameObject: {fileID: 526269004}
  m_Enabled: 1
--- !u!124 &526269006
Behaviour:
  m_ObjectHideFlags: 0
  m_PrefabParentObject: {fileID: 0}
  m_PrefabInternal: {fileID: 0}
  m_GameObject: {fileID: 526269004}
  m_Enabled: 1
--- !u!92 &526269007
Behaviour:
  m_ObjectHideFlags: 0
  m_PrefabParentObject: {fileID: 0}
  m_PrefabInternal: {fileID: 0}
  m_GameObject: {fileID: 526269004}
  m_Enabled: 1
--- !u!20 &526269008
Camera:
  m_ObjectHideFlags: 0
  m_PrefabParentObject: {fileID: 0}
  m_PrefabInternal: {fileID: 0}
  m_GameObject: {fileID: 526269004}
  m_Enabled: 1
  serializedVersion: 2
  m_ClearFlags: 1
  m_BackGroundColor: {r: 0.19215687, g: 0.19215687, b: 0.19215687, a: 0.19215687}
  m_NormalizedViewPortRect:
    serializedVersion: 2
    x: 0
    y: 0
    width: 1
    height: 1
  near clip plane: 0.3
  far clip plane: 1000
  field of view: 30
  orthographic: 0
  orthographic size: 5
  m_Depth: -1
  m_CullingMask:
    serializedVersion: 2
    m_Bits: 4294967295
  m_RenderingPath: -1
  m_TargetTexture: {fileID: 0}
  m_TargetDisplay: 0
  m_TargetEye: 3
  m_HDR: 0
  m_AllowMSAA: 1
  m_AllowDynamicResolution: 0
  m_ForceIntoRT: 0
  m_OcclusionCulling: 1
  m_StereoConvergence: 10
  m_StereoSeparation: 0.022
--- !u!4 &526269009
Transform:
  m_ObjectHideFlags: 0
  m_PrefabParentObject: {fileID: 0}
  m_PrefabInternal: {fileID: 0}
  m_GameObject: {fileID: 526269004}
  m_LocalRotation: {x: 0.047461778, y: 0.9405104, z: -0.14670552, w: 0.30276248}
  m_LocalPosition: {x: -2.7256548, y: 2.2370262, z: 3.8979247}
  m_LocalScale: {x: 1, y: 1, z: 1}
  m_Children: []
  m_Father: {fileID: 0}
  m_RootOrder: 0
  m_LocalEulerAnglesHint: {x: 0, y: 0, z: 0}
--- !u!1001 &610254501
Prefab:
  m_ObjectHideFlags: 0
  serializedVersion: 2
  m_Modification:
    m_TransformParent: {fileID: 0}
    m_Modifications:
    - target: {fileID: 4000010906157402, guid: 63dc9e589cbbaa84c8bf6570d163cf4d, type: 2}
      propertyPath: m_LocalPosition.x
      value: -12
      objectReference: {fileID: 0}
    - target: {fileID: 4000010906157402, guid: 63dc9e589cbbaa84c8bf6570d163cf4d, type: 2}
      propertyPath: m_LocalPosition.y
      value: 0
      objectReference: {fileID: 0}
    - target: {fileID: 4000010906157402, guid: 63dc9e589cbbaa84c8bf6570d163cf4d, type: 2}
      propertyPath: m_LocalPosition.z
      value: 0
      objectReference: {fileID: 0}
    - target: {fileID: 4000010906157402, guid: 63dc9e589cbbaa84c8bf6570d163cf4d, type: 2}
      propertyPath: m_LocalRotation.x
      value: 0
      objectReference: {fileID: 0}
    - target: {fileID: 4000010906157402, guid: 63dc9e589cbbaa84c8bf6570d163cf4d, type: 2}
      propertyPath: m_LocalRotation.y
      value: 0
      objectReference: {fileID: 0}
    - target: {fileID: 4000010906157402, guid: 63dc9e589cbbaa84c8bf6570d163cf4d, type: 2}
      propertyPath: m_LocalRotation.z
      value: 0
      objectReference: {fileID: 0}
    - target: {fileID: 4000010906157402, guid: 63dc9e589cbbaa84c8bf6570d163cf4d, type: 2}
      propertyPath: m_LocalRotation.w
      value: 1
      objectReference: {fileID: 0}
    - target: {fileID: 4000010906157402, guid: 63dc9e589cbbaa84c8bf6570d163cf4d, type: 2}
      propertyPath: m_RootOrder
      value: 2
      objectReference: {fileID: 0}
    - target: {fileID: 23000012544202092, guid: 63dc9e589cbbaa84c8bf6570d163cf4d,
        type: 2}
      propertyPath: m_Enabled
      value: 1
      objectReference: {fileID: 0}
    - target: {fileID: 4000010906157402, guid: 63dc9e589cbbaa84c8bf6570d163cf4d, type: 2}
      propertyPath: m_LocalEulerAnglesHint.y
      value: 0
      objectReference: {fileID: 0}
    m_RemovedComponents: []
  m_ParentPrefab: {fileID: 100100000, guid: 63dc9e589cbbaa84c8bf6570d163cf4d, type: 2}
  m_RootGameObject: {fileID: 1206175816}
  m_IsPrefabParent: 0
--- !u!1 &617482507
GameObject:
  m_ObjectHideFlags: 0
  m_PrefabParentObject: {fileID: 0}
  m_PrefabInternal: {fileID: 0}
  serializedVersion: 5
  m_Component:
  - component: {fileID: 617482509}
  - component: {fileID: 617482508}
  m_Layer: 0
  m_Name: Directional Light
  m_TagString: Untagged
  m_Icon: {fileID: 0}
  m_NavMeshLayer: 0
  m_StaticEditorFlags: 0
  m_IsActive: 1
--- !u!108 &617482508
Light:
  m_ObjectHideFlags: 0
  m_PrefabParentObject: {fileID: 0}
  m_PrefabInternal: {fileID: 0}
  m_GameObject: {fileID: 617482507}
  m_Enabled: 1
  serializedVersion: 8
  m_Type: 1
  m_Color: {r: 1, g: 1, b: 1, a: 1}
  m_Intensity: 1
  m_Range: 10
  m_SpotAngle: 30
  m_CookieSize: 10
  m_Shadows:
    m_Type: 2
    m_Resolution: -1
    m_CustomResolution: -1
    m_Strength: 1
    m_Bias: 0.05
    m_NormalBias: 0.4
    m_NearPlane: 0.2
  m_Cookie: {fileID: 0}
  m_DrawHalo: 0
  m_Flare: {fileID: 0}
  m_RenderMode: 0
  m_CullingMask:
    serializedVersion: 2
    m_Bits: 4294967295
  m_Lightmapping: 4
  m_AreaSize: {x: 1, y: 1}
  m_BounceIntensity: 1
  m_ColorTemperature: 6570
  m_UseColorTemperature: 0
  m_ShadowRadius: 0
  m_ShadowAngle: 0
--- !u!4 &617482509
Transform:
  m_ObjectHideFlags: 0
  m_PrefabParentObject: {fileID: 0}
  m_PrefabInternal: {fileID: 0}
  m_GameObject: {fileID: 617482507}
  m_LocalRotation: {x: -0.03758432, y: 0.9614639, z: -0.2131514, w: -0.16953193}
  m_LocalPosition: {x: 0, y: 100, z: 0}
  m_LocalScale: {x: 1, y: 1, z: 1}
  m_Children: []
  m_Father: {fileID: 0}
  m_RootOrder: 11
  m_LocalEulerAnglesHint: {x: 25, y: 200, z: 0}
--- !u!1001 &688416360
Prefab:
  m_ObjectHideFlags: 0
  serializedVersion: 2
  m_Modification:
    m_TransformParent: {fileID: 0}
    m_Modifications:
    - target: {fileID: 4000010082992258, guid: 40ac3af1a5cdec948893235580e5aba6, type: 2}
      propertyPath: m_LocalPosition.x
      value: -9
      objectReference: {fileID: 0}
    - target: {fileID: 4000010082992258, guid: 40ac3af1a5cdec948893235580e5aba6, type: 2}
      propertyPath: m_LocalPosition.y
      value: 0
      objectReference: {fileID: 0}
    - target: {fileID: 4000010082992258, guid: 40ac3af1a5cdec948893235580e5aba6, type: 2}
      propertyPath: m_LocalPosition.z
      value: 0
      objectReference: {fileID: 0}
    - target: {fileID: 4000010082992258, guid: 40ac3af1a5cdec948893235580e5aba6, type: 2}
      propertyPath: m_LocalRotation.x
      value: 0
      objectReference: {fileID: 0}
    - target: {fileID: 4000010082992258, guid: 40ac3af1a5cdec948893235580e5aba6, type: 2}
      propertyPath: m_LocalRotation.y
      value: 0
      objectReference: {fileID: 0}
    - target: {fileID: 4000010082992258, guid: 40ac3af1a5cdec948893235580e5aba6, type: 2}
      propertyPath: m_LocalRotation.z
      value: 0
      objectReference: {fileID: 0}
    - target: {fileID: 4000010082992258, guid: 40ac3af1a5cdec948893235580e5aba6, type: 2}
      propertyPath: m_LocalRotation.w
      value: 1
      objectReference: {fileID: 0}
    - target: {fileID: 4000010082992258, guid: 40ac3af1a5cdec948893235580e5aba6, type: 2}
      propertyPath: m_RootOrder
      value: 4
      objectReference: {fileID: 0}
    - target: {fileID: 23000012521539462, guid: 40ac3af1a5cdec948893235580e5aba6,
        type: 2}
      propertyPath: m_Enabled
      value: 1
      objectReference: {fileID: 0}
    - target: {fileID: 4000010082992258, guid: 40ac3af1a5cdec948893235580e5aba6, type: 2}
      propertyPath: m_LocalEulerAnglesHint.y
      value: 0
      objectReference: {fileID: 0}
    m_RemovedComponents: []
  m_ParentPrefab: {fileID: 100100000, guid: 40ac3af1a5cdec948893235580e5aba6, type: 2}
  m_RootGameObject: {fileID: 1577092719}
  m_IsPrefabParent: 0
--- !u!1001 &844314640
Prefab:
  m_ObjectHideFlags: 0
  serializedVersion: 2
  m_Modification:
    m_TransformParent: {fileID: 0}
    m_Modifications:
    - target: {fileID: 4000012622640994, guid: d49d5f9ac8c6b7749a634985e6e7e096, type: 2}
      propertyPath: m_LocalPosition.x
      value: -1.5
      objectReference: {fileID: 0}
    - target: {fileID: 4000012622640994, guid: d49d5f9ac8c6b7749a634985e6e7e096, type: 2}
      propertyPath: m_LocalPosition.y
      value: 0
      objectReference: {fileID: 0}
    - target: {fileID: 4000012622640994, guid: d49d5f9ac8c6b7749a634985e6e7e096, type: 2}
      propertyPath: m_LocalPosition.z
      value: 0
      objectReference: {fileID: 0}
    - target: {fileID: 4000012622640994, guid: d49d5f9ac8c6b7749a634985e6e7e096, type: 2}
      propertyPath: m_LocalRotation.x
      value: 0
      objectReference: {fileID: 0}
    - target: {fileID: 4000012622640994, guid: d49d5f9ac8c6b7749a634985e6e7e096, type: 2}
      propertyPath: m_LocalRotation.y
      value: 0
      objectReference: {fileID: 0}
    - target: {fileID: 4000012622640994, guid: d49d5f9ac8c6b7749a634985e6e7e096, type: 2}
      propertyPath: m_LocalRotation.z
      value: 0
      objectReference: {fileID: 0}
    - target: {fileID: 4000012622640994, guid: d49d5f9ac8c6b7749a634985e6e7e096, type: 2}
      propertyPath: m_LocalRotation.w
      value: 1
      objectReference: {fileID: 0}
    - target: {fileID: 4000012622640994, guid: d49d5f9ac8c6b7749a634985e6e7e096, type: 2}
      propertyPath: m_RootOrder
      value: 9
      objectReference: {fileID: 0}
    - target: {fileID: 23000012609133416, guid: d49d5f9ac8c6b7749a634985e6e7e096,
        type: 2}
      propertyPath: m_Enabled
      value: 1
      objectReference: {fileID: 0}
    - target: {fileID: 4000012622640994, guid: d49d5f9ac8c6b7749a634985e6e7e096, type: 2}
      propertyPath: m_LocalEulerAnglesHint.y
      value: 0
      objectReference: {fileID: 0}
    m_RemovedComponents: []
  m_ParentPrefab: {fileID: 100100000, guid: d49d5f9ac8c6b7749a634985e6e7e096, type: 2}
  m_RootGameObject: {fileID: 1298057814}
  m_IsPrefabParent: 0
--- !u!1 &1075385651
GameObject:
  m_ObjectHideFlags: 0
  m_PrefabParentObject: {fileID: 1000013720703938, guid: 706e6270ca3a68a46a4455daaeaeafd1,
    type: 2}
  m_PrefabInternal: {fileID: 2138979787}
  serializedVersion: 5
  m_Component:
  - component: {fileID: 1075385655}
  - component: {fileID: 1075385654}
  - component: {fileID: 1075385653}
  - component: {fileID: 1075385652}
  m_Layer: 0
  m_Name: ATM_Gray
  m_TagString: Untagged
  m_Icon: {fileID: 0}
  m_NavMeshLayer: 0
  m_StaticEditorFlags: 0
  m_IsActive: 1
--- !u!64 &1075385652
MeshCollider:
  m_ObjectHideFlags: 0
  m_PrefabParentObject: {fileID: 64000013640084084, guid: 706e6270ca3a68a46a4455daaeaeafd1,
    type: 2}
  m_PrefabInternal: {fileID: 2138979787}
  m_GameObject: {fileID: 1075385651}
  m_Material: {fileID: 0}
  m_IsTrigger: 0
  m_Enabled: 1
  serializedVersion: 3
  m_Convex: 0
  m_CookingOptions: 14
  m_SkinWidth: 0.01
  m_Mesh: {fileID: 4300000, guid: 9c9c01ea5d9bcf74db52c9818f202508, type: 3}
--- !u!23 &1075385653
MeshRenderer:
  m_ObjectHideFlags: 0
  m_PrefabParentObject: {fileID: 23000012634068266, guid: 706e6270ca3a68a46a4455daaeaeafd1,
    type: 2}
  m_PrefabInternal: {fileID: 2138979787}
  m_GameObject: {fileID: 1075385651}
  m_Enabled: 1
  m_CastShadows: 1
  m_ReceiveShadows: 1
  m_DynamicOccludee: 1
  m_MotionVectors: 1
  m_LightProbeUsage: 1
  m_ReflectionProbeUsage: 1
  m_Materials:
  - {fileID: 2100000, guid: e5c9b732aeebe2341b455d5034f745b3, type: 2}
  m_StaticBatchInfo:
    firstSubMesh: 0
    subMeshCount: 0
  m_StaticBatchRoot: {fileID: 0}
  m_ProbeAnchor: {fileID: 0}
  m_LightProbeVolumeOverride: {fileID: 0}
  m_ScaleInLightmap: 1
  m_PreserveUVs: 0
  m_IgnoreNormalsForChartDetection: 0
  m_ImportantGI: 0
  m_StitchLightmapSeams: 0
  m_SelectedEditorRenderState: 3
  m_MinimumChartSize: 4
  m_AutoUVMaxDistance: 0.5
  m_AutoUVMaxAngle: 89
  m_LightmapParameters: {fileID: 0}
  m_SortingLayerID: 0
  m_SortingLayer: 0
  m_SortingOrder: 0
--- !u!33 &1075385654
MeshFilter:
  m_ObjectHideFlags: 0
  m_PrefabParentObject: {fileID: 33000012536409686, guid: 706e6270ca3a68a46a4455daaeaeafd1,
    type: 2}
  m_PrefabInternal: {fileID: 2138979787}
  m_GameObject: {fileID: 1075385651}
  m_Mesh: {fileID: 4300000, guid: 9c9c01ea5d9bcf74db52c9818f202508, type: 3}
--- !u!4 &1075385655
Transform:
  m_ObjectHideFlags: 0
  m_PrefabParentObject: {fileID: 4000010984663340, guid: 706e6270ca3a68a46a4455daaeaeafd1,
    type: 2}
  m_PrefabInternal: {fileID: 2138979787}
  m_GameObject: {fileID: 1075385651}
  m_LocalRotation: {x: 0, y: 0, z: 0, w: 1}
  m_LocalPosition: {x: -6, y: 0, z: 0}
  m_LocalScale: {x: 1, y: 1, z: 1}
  m_Children: []
  m_Father: {fileID: 0}
  m_RootOrder: 6
  m_LocalEulerAnglesHint: {x: 0, y: 0, z: 0}
--- !u!1 &1206175816
GameObject:
  m_ObjectHideFlags: 0
  m_PrefabParentObject: {fileID: 1000013928085590, guid: 63dc9e589cbbaa84c8bf6570d163cf4d,
    type: 2}
  m_PrefabInternal: {fileID: 610254501}
  serializedVersion: 5
  m_Component:
  - component: {fileID: 1206175820}
  - component: {fileID: 1206175819}
  - component: {fileID: 1206175818}
  - component: {fileID: 1206175817}
  m_Layer: 0
  m_Name: ATM_Purple
  m_TagString: Untagged
  m_Icon: {fileID: 0}
  m_NavMeshLayer: 0
  m_StaticEditorFlags: 0
  m_IsActive: 1
--- !u!64 &1206175817
MeshCollider:
  m_ObjectHideFlags: 0
  m_PrefabParentObject: {fileID: 64000013666961764, guid: 63dc9e589cbbaa84c8bf6570d163cf4d,
    type: 2}
  m_PrefabInternal: {fileID: 610254501}
  m_GameObject: {fileID: 1206175816}
  m_Material: {fileID: 0}
  m_IsTrigger: 0
  m_Enabled: 1
  serializedVersion: 3
  m_Convex: 0
  m_CookingOptions: 14
  m_SkinWidth: 0.01
  m_Mesh: {fileID: 4300000, guid: 9c9c01ea5d9bcf74db52c9818f202508, type: 3}
--- !u!23 &1206175818
MeshRenderer:
  m_ObjectHideFlags: 0
  m_PrefabParentObject: {fileID: 23000012544202092, guid: 63dc9e589cbbaa84c8bf6570d163cf4d,
    type: 2}
  m_PrefabInternal: {fileID: 610254501}
  m_GameObject: {fileID: 1206175816}
  m_Enabled: 1
  m_CastShadows: 1
  m_ReceiveShadows: 1
  m_DynamicOccludee: 1
  m_MotionVectors: 1
  m_LightProbeUsage: 1
  m_ReflectionProbeUsage: 1
  m_Materials:
  - {fileID: 2100000, guid: b1f9ee7634a9a0340bc6abd5a1fca1a5, type: 2}
  m_StaticBatchInfo:
    firstSubMesh: 0
    subMeshCount: 0
  m_StaticBatchRoot: {fileID: 0}
  m_ProbeAnchor: {fileID: 0}
  m_LightProbeVolumeOverride: {fileID: 0}
  m_ScaleInLightmap: 1
  m_PreserveUVs: 0
  m_IgnoreNormalsForChartDetection: 0
  m_ImportantGI: 0
  m_StitchLightmapSeams: 0
  m_SelectedEditorRenderState: 3
  m_MinimumChartSize: 4
  m_AutoUVMaxDistance: 0.5
  m_AutoUVMaxAngle: 89
  m_LightmapParameters: {fileID: 0}
  m_SortingLayerID: 0
  m_SortingLayer: 0
  m_SortingOrder: 0
--- !u!33 &1206175819
MeshFilter:
  m_ObjectHideFlags: 0
  m_PrefabParentObject: {fileID: 33000011553541122, guid: 63dc9e589cbbaa84c8bf6570d163cf4d,
    type: 2}
  m_PrefabInternal: {fileID: 610254501}
  m_GameObject: {fileID: 1206175816}
  m_Mesh: {fileID: 4300000, guid: 9c9c01ea5d9bcf74db52c9818f202508, type: 3}
--- !u!4 &1206175820
Transform:
  m_ObjectHideFlags: 0
  m_PrefabParentObject: {fileID: 4000010906157402, guid: 63dc9e589cbbaa84c8bf6570d163cf4d,
    type: 2}
  m_PrefabInternal: {fileID: 610254501}
  m_GameObject: {fileID: 1206175816}
  m_LocalRotation: {x: 0, y: 0, z: 0, w: 1}
  m_LocalPosition: {x: -12, y: 0, z: 0}
  m_LocalScale: {x: 1, y: 1, z: 1}
  m_Children: []
  m_Father: {fileID: 0}
  m_RootOrder: 2
  m_LocalEulerAnglesHint: {x: 0, y: 0, z: 0}
--- !u!1 &1298057814
GameObject:
  m_ObjectHideFlags: 0
  m_PrefabParentObject: {fileID: 1000010641356200, guid: d49d5f9ac8c6b7749a634985e6e7e096,
    type: 2}
  m_PrefabInternal: {fileID: 844314640}
  serializedVersion: 5
  m_Component:
  - component: {fileID: 1298057818}
  - component: {fileID: 1298057817}
  - component: {fileID: 1298057816}
  - component: {fileID: 1298057815}
  m_Layer: 0
  m_Name: ATM_Blue
  m_TagString: Untagged
  m_Icon: {fileID: 0}
  m_NavMeshLayer: 0
  m_StaticEditorFlags: 0
  m_IsActive: 1
--- !u!64 &1298057815
MeshCollider:
  m_ObjectHideFlags: 0
  m_PrefabParentObject: {fileID: 64000014031763246, guid: d49d5f9ac8c6b7749a634985e6e7e096,
    type: 2}
  m_PrefabInternal: {fileID: 844314640}
  m_GameObject: {fileID: 1298057814}
  m_Material: {fileID: 0}
  m_IsTrigger: 0
  m_Enabled: 1
  serializedVersion: 3
  m_Convex: 0
  m_CookingOptions: 14
  m_SkinWidth: 0.01
  m_Mesh: {fileID: 4300000, guid: 9c9c01ea5d9bcf74db52c9818f202508, type: 3}
--- !u!23 &1298057816
MeshRenderer:
  m_ObjectHideFlags: 0
  m_PrefabParentObject: {fileID: 23000012609133416, guid: d49d5f9ac8c6b7749a634985e6e7e096,
    type: 2}
  m_PrefabInternal: {fileID: 844314640}
  m_GameObject: {fileID: 1298057814}
  m_Enabled: 1
  m_CastShadows: 1
  m_ReceiveShadows: 1
  m_DynamicOccludee: 1
  m_MotionVectors: 1
  m_LightProbeUsage: 1
  m_ReflectionProbeUsage: 1
  m_Materials:
  - {fileID: 2100000, guid: d39c7e9f61c9d2041b40ba70799609cb, type: 2}
  m_StaticBatchInfo:
    firstSubMesh: 0
    subMeshCount: 0
  m_StaticBatchRoot: {fileID: 0}
  m_ProbeAnchor: {fileID: 0}
  m_LightProbeVolumeOverride: {fileID: 0}
  m_ScaleInLightmap: 1
  m_PreserveUVs: 0
  m_IgnoreNormalsForChartDetection: 0
  m_ImportantGI: 0
  m_StitchLightmapSeams: 0
  m_SelectedEditorRenderState: 3
  m_MinimumChartSize: 4
  m_AutoUVMaxDistance: 0.5
  m_AutoUVMaxAngle: 89
  m_LightmapParameters: {fileID: 0}
  m_SortingLayerID: 0
  m_SortingLayer: 0
  m_SortingOrder: 0
--- !u!33 &1298057817
MeshFilter:
  m_ObjectHideFlags: 0
  m_PrefabParentObject: {fileID: 33000013585309048, guid: d49d5f9ac8c6b7749a634985e6e7e096,
    type: 2}
  m_PrefabInternal: {fileID: 844314640}
  m_GameObject: {fileID: 1298057814}
  m_Mesh: {fileID: 4300000, guid: 9c9c01ea5d9bcf74db52c9818f202508, type: 3}
--- !u!4 &1298057818
Transform:
  m_ObjectHideFlags: 0
  m_PrefabParentObject: {fileID: 4000012622640994, guid: d49d5f9ac8c6b7749a634985e6e7e096,
    type: 2}
  m_PrefabInternal: {fileID: 844314640}
  m_GameObject: {fileID: 1298057814}
  m_LocalRotation: {x: 0, y: 0, z: 0, w: 1}
  m_LocalPosition: {x: -1.5, y: 0, z: 0}
  m_LocalScale: {x: 1, y: 1, z: 1}
  m_Children: []
  m_Father: {fileID: 0}
  m_RootOrder: 9
  m_LocalEulerAnglesHint: {x: 0, y: 0, z: 0}
--- !u!1 &1331493917
GameObject:
  m_ObjectHideFlags: 0
  m_PrefabParentObject: {fileID: 1000013113291574, guid: cadb7b884cfea364198536f2b0cd6999,
    type: 2}
  m_PrefabInternal: {fileID: 1669746695}
  serializedVersion: 5
  m_Component:
  - component: {fileID: 1331493921}
  - component: {fileID: 1331493920}
  - component: {fileID: 1331493919}
  - component: {fileID: 1331493918}
  m_Layer: 0
  m_Name: ATM_Pink
  m_TagString: Untagged
  m_Icon: {fileID: 0}
  m_NavMeshLayer: 0
  m_StaticEditorFlags: 0
  m_IsActive: 1
--- !u!64 &1331493918
MeshCollider:
  m_ObjectHideFlags: 0
  m_PrefabParentObject: {fileID: 64000013931672536, guid: cadb7b884cfea364198536f2b0cd6999,
    type: 2}
  m_PrefabInternal: {fileID: 1669746695}
  m_GameObject: {fileID: 1331493917}
  m_Material: {fileID: 0}
  m_IsTrigger: 0
  m_Enabled: 1
  serializedVersion: 3
  m_Convex: 0
  m_CookingOptions: 14
  m_SkinWidth: 0.01
  m_Mesh: {fileID: 4300000, guid: 9c9c01ea5d9bcf74db52c9818f202508, type: 3}
--- !u!23 &1331493919
MeshRenderer:
  m_ObjectHideFlags: 0
  m_PrefabParentObject: {fileID: 23000012075041696, guid: cadb7b884cfea364198536f2b0cd6999,
    type: 2}
  m_PrefabInternal: {fileID: 1669746695}
  m_GameObject: {fileID: 1331493917}
  m_Enabled: 1
  m_CastShadows: 1
  m_ReceiveShadows: 1
  m_DynamicOccludee: 1
  m_MotionVectors: 1
  m_LightProbeUsage: 1
  m_ReflectionProbeUsage: 1
  m_Materials:
  - {fileID: 2100000, guid: 313ef4bc07518a14d8fce4c5aba3c0d2, type: 2}
  m_StaticBatchInfo:
    firstSubMesh: 0
    subMeshCount: 0
  m_StaticBatchRoot: {fileID: 0}
  m_ProbeAnchor: {fileID: 0}
  m_LightProbeVolumeOverride: {fileID: 0}
  m_ScaleInLightmap: 1
  m_PreserveUVs: 0
  m_IgnoreNormalsForChartDetection: 0
  m_ImportantGI: 0
  m_StitchLightmapSeams: 0
  m_SelectedEditorRenderState: 3
  m_MinimumChartSize: 4
  m_AutoUVMaxDistance: 0.5
  m_AutoUVMaxAngle: 89
  m_LightmapParameters: {fileID: 0}
  m_SortingLayerID: 0
  m_SortingLayer: 0
  m_SortingOrder: 0
--- !u!33 &1331493920
MeshFilter:
  m_ObjectHideFlags: 0
  m_PrefabParentObject: {fileID: 33000013055584672, guid: cadb7b884cfea364198536f2b0cd6999,
    type: 2}
  m_PrefabInternal: {fileID: 1669746695}
  m_GameObject: {fileID: 1331493917}
  m_Mesh: {fileID: 4300000, guid: 9c9c01ea5d9bcf74db52c9818f202508, type: 3}
--- !u!4 &1331493921
Transform:
  m_ObjectHideFlags: 0
  m_PrefabParentObject: {fileID: 4000011912036508, guid: cadb7b884cfea364198536f2b0cd6999,
    type: 2}
  m_PrefabInternal: {fileID: 1669746695}
  m_GameObject: {fileID: 1331493917}
  m_LocalRotation: {x: 0, y: 0, z: 0, w: 1}
  m_LocalPosition: {x: -10.5, y: 0, z: 0}
  m_LocalScale: {x: 1, y: 1, z: 1}
  m_Children: []
  m_Father: {fileID: 0}
  m_RootOrder: 3
  m_LocalEulerAnglesHint: {x: 0, y: 0, z: 0}
--- !u!1 &1335504179
GameObject:
  m_ObjectHideFlags: 0
  m_PrefabParentObject: {fileID: 1000013699052252, guid: c62700998e152c04caf87b3620ca2fee,
    type: 2}
  m_PrefabInternal: {fileID: 463046621}
  serializedVersion: 5
  m_Component:
  - component: {fileID: 1335504183}
  - component: {fileID: 1335504182}
  - component: {fileID: 1335504181}
  - component: {fileID: 1335504180}
  m_Layer: 0
  m_Name: ATM_Yellow
  m_TagString: Untagged
  m_Icon: {fileID: 0}
  m_NavMeshLayer: 0
  m_StaticEditorFlags: 0
  m_IsActive: 1
--- !u!64 &1335504180
MeshCollider:
  m_ObjectHideFlags: 0
  m_PrefabParentObject: {fileID: 64000012461069462, guid: c62700998e152c04caf87b3620ca2fee,
    type: 2}
  m_PrefabInternal: {fileID: 463046621}
  m_GameObject: {fileID: 1335504179}
  m_Material: {fileID: 0}
  m_IsTrigger: 0
  m_Enabled: 1
  serializedVersion: 3
  m_Convex: 0
  m_CookingOptions: 14
  m_SkinWidth: 0.01
  m_Mesh: {fileID: 4300000, guid: 9c9c01ea5d9bcf74db52c9818f202508, type: 3}
--- !u!23 &1335504181
MeshRenderer:
  m_ObjectHideFlags: 0
  m_PrefabParentObject: {fileID: 23000013163389464, guid: c62700998e152c04caf87b3620ca2fee,
    type: 2}
  m_PrefabInternal: {fileID: 463046621}
  m_GameObject: {fileID: 1335504179}
  m_Enabled: 1
  m_CastShadows: 1
  m_ReceiveShadows: 1
  m_DynamicOccludee: 1
  m_MotionVectors: 1
  m_LightProbeUsage: 1
  m_ReflectionProbeUsage: 1
  m_Materials:
  - {fileID: 2100000, guid: 28035663f93ed4a4b8bb4f9b3a208bc2, type: 2}
  m_StaticBatchInfo:
    firstSubMesh: 0
    subMeshCount: 0
  m_StaticBatchRoot: {fileID: 0}
  m_ProbeAnchor: {fileID: 0}
  m_LightProbeVolumeOverride: {fileID: 0}
  m_ScaleInLightmap: 1
  m_PreserveUVs: 0
  m_IgnoreNormalsForChartDetection: 0
  m_ImportantGI: 0
  m_StitchLightmapSeams: 0
  m_SelectedEditorRenderState: 3
  m_MinimumChartSize: 4
  m_AutoUVMaxDistance: 0.5
  m_AutoUVMaxAngle: 89
  m_LightmapParameters: {fileID: 0}
  m_SortingLayerID: 0
  m_SortingLayer: 0
  m_SortingOrder: 0
--- !u!33 &1335504182
MeshFilter:
  m_ObjectHideFlags: 0
  m_PrefabParentObject: {fileID: 33000014167589324, guid: c62700998e152c04caf87b3620ca2fee,
    type: 2}
  m_PrefabInternal: {fileID: 463046621}
  m_GameObject: {fileID: 1335504179}
  m_Mesh: {fileID: 4300000, guid: 9c9c01ea5d9bcf74db52c9818f202508, type: 3}
--- !u!4 &1335504183
Transform:
  m_ObjectHideFlags: 0
  m_PrefabParentObject: {fileID: 4000013233977504, guid: c62700998e152c04caf87b3620ca2fee,
    type: 2}
  m_PrefabInternal: {fileID: 463046621}
  m_GameObject: {fileID: 1335504179}
  m_LocalRotation: {x: 0, y: 0, z: 0, w: 1}
  m_LocalPosition: {x: -13.5, y: 0, z: 0}
  m_LocalScale: {x: 1, y: 1, z: 1}
  m_Children: []
  m_Father: {fileID: 0}
  m_RootOrder: 1
  m_LocalEulerAnglesHint: {x: 0, y: 0, z: 0}
--- !u!1001 &1441829221
Prefab:
  m_ObjectHideFlags: 0
  serializedVersion: 2
  m_Modification:
    m_TransformParent: {fileID: 0}
    m_Modifications:
    - target: {fileID: 4000013448728562, guid: a73983cbfc3f2c94e9a87d90fc6d5edb, type: 2}
      propertyPath: m_LocalPosition.x
      value: -3
      objectReference: {fileID: 0}
    - target: {fileID: 4000013448728562, guid: a73983cbfc3f2c94e9a87d90fc6d5edb, type: 2}
      propertyPath: m_LocalPosition.y
      value: 0
      objectReference: {fileID: 0}
    - target: {fileID: 4000013448728562, guid: a73983cbfc3f2c94e9a87d90fc6d5edb, type: 2}
      propertyPath: m_LocalPosition.z
      value: 0
      objectReference: {fileID: 0}
    - target: {fileID: 4000013448728562, guid: a73983cbfc3f2c94e9a87d90fc6d5edb, type: 2}
      propertyPath: m_LocalRotation.x
      value: 0
      objectReference: {fileID: 0}
    - target: {fileID: 4000013448728562, guid: a73983cbfc3f2c94e9a87d90fc6d5edb, type: 2}
      propertyPath: m_LocalRotation.y
      value: 0
      objectReference: {fileID: 0}
    - target: {fileID: 4000013448728562, guid: a73983cbfc3f2c94e9a87d90fc6d5edb, type: 2}
      propertyPath: m_LocalRotation.z
      value: 0
      objectReference: {fileID: 0}
    - target: {fileID: 4000013448728562, guid: a73983cbfc3f2c94e9a87d90fc6d5edb, type: 2}
      propertyPath: m_LocalRotation.w
      value: 1
      objectReference: {fileID: 0}
    - target: {fileID: 4000013448728562, guid: a73983cbfc3f2c94e9a87d90fc6d5edb, type: 2}
      propertyPath: m_RootOrder
      value: 8
      objectReference: {fileID: 0}
    - target: {fileID: 23000013093532542, guid: a73983cbfc3f2c94e9a87d90fc6d5edb,
        type: 2}
      propertyPath: m_Enabled
      value: 1
      objectReference: {fileID: 0}
    - target: {fileID: 4000013448728562, guid: a73983cbfc3f2c94e9a87d90fc6d5edb, type: 2}
      propertyPath: m_LocalEulerAnglesHint.y
      value: 0
      objectReference: {fileID: 0}
    m_RemovedComponents: []
  m_ParentPrefab: {fileID: 100100000, guid: a73983cbfc3f2c94e9a87d90fc6d5edb, type: 2}
  m_RootGameObject: {fileID: 84148735}
  m_IsPrefabParent: 0
--- !u!1 &1577092719
GameObject:
  m_ObjectHideFlags: 0
  m_PrefabParentObject: {fileID: 1000014280859804, guid: 40ac3af1a5cdec948893235580e5aba6,
    type: 2}
  m_PrefabInternal: {fileID: 688416360}
  serializedVersion: 5
  m_Component:
  - component: {fileID: 1577092723}
  - component: {fileID: 1577092722}
  - component: {fileID: 1577092721}
  - component: {fileID: 1577092720}
  m_Layer: 0
  m_Name: ATM_Orange
  m_TagString: Untagged
  m_Icon: {fileID: 0}
  m_NavMeshLayer: 0
  m_StaticEditorFlags: 0
  m_IsActive: 1
--- !u!64 &1577092720
MeshCollider:
  m_ObjectHideFlags: 0
  m_PrefabParentObject: {fileID: 64000014095782574, guid: 40ac3af1a5cdec948893235580e5aba6,
    type: 2}
  m_PrefabInternal: {fileID: 688416360}
  m_GameObject: {fileID: 1577092719}
  m_Material: {fileID: 0}
  m_IsTrigger: 0
  m_Enabled: 1
  serializedVersion: 3
  m_Convex: 0
  m_CookingOptions: 14
  m_SkinWidth: 0.01
  m_Mesh: {fileID: 4300000, guid: 9c9c01ea5d9bcf74db52c9818f202508, type: 3}
--- !u!23 &1577092721
MeshRenderer:
  m_ObjectHideFlags: 0
  m_PrefabParentObject: {fileID: 23000012521539462, guid: 40ac3af1a5cdec948893235580e5aba6,
    type: 2}
  m_PrefabInternal: {fileID: 688416360}
  m_GameObject: {fileID: 1577092719}
  m_Enabled: 1
  m_CastShadows: 1
  m_ReceiveShadows: 1
  m_DynamicOccludee: 1
  m_MotionVectors: 1
  m_LightProbeUsage: 1
  m_ReflectionProbeUsage: 1
  m_Materials:
  - {fileID: 2100000, guid: e5089908cb86887459f5c7e737e6db29, type: 2}
  m_StaticBatchInfo:
    firstSubMesh: 0
    subMeshCount: 0
  m_StaticBatchRoot: {fileID: 0}
  m_ProbeAnchor: {fileID: 0}
  m_LightProbeVolumeOverride: {fileID: 0}
  m_ScaleInLightmap: 1
  m_PreserveUVs: 0
  m_IgnoreNormalsForChartDetection: 0
  m_ImportantGI: 0
  m_StitchLightmapSeams: 0
  m_SelectedEditorRenderState: 3
  m_MinimumChartSize: 4
  m_AutoUVMaxDistance: 0.5
  m_AutoUVMaxAngle: 89
  m_LightmapParameters: {fileID: 0}
  m_SortingLayerID: 0
  m_SortingLayer: 0
  m_SortingOrder: 0
--- !u!33 &1577092722
MeshFilter:
  m_ObjectHideFlags: 0
  m_PrefabParentObject: {fileID: 33000013747490796, guid: 40ac3af1a5cdec948893235580e5aba6,
    type: 2}
  m_PrefabInternal: {fileID: 688416360}
  m_GameObject: {fileID: 1577092719}
  m_Mesh: {fileID: 4300000, guid: 9c9c01ea5d9bcf74db52c9818f202508, type: 3}
--- !u!4 &1577092723
Transform:
  m_ObjectHideFlags: 0
  m_PrefabParentObject: {fileID: 4000010082992258, guid: 40ac3af1a5cdec948893235580e5aba6,
    type: 2}
  m_PrefabInternal: {fileID: 688416360}
  m_GameObject: {fileID: 1577092719}
  m_LocalRotation: {x: 0, y: 0, z: 0, w: 1}
  m_LocalPosition: {x: -9, y: 0, z: 0}
  m_LocalScale: {x: 1, y: 1, z: 1}
  m_Children: []
  m_Father: {fileID: 0}
  m_RootOrder: 4
  m_LocalEulerAnglesHint: {x: 0, y: 0, z: 0}
--- !u!1001 &1664173725
Prefab:
  m_ObjectHideFlags: 0
  serializedVersion: 2
  m_Modification:
    m_TransformParent: {fileID: 0}
    m_Modifications:
    - target: {fileID: 4000010475845846, guid: dbdd1cfbaf7431f4fa51a3590604bdd5, type: 2}
      propertyPath: m_LocalPosition.x
      value: -7.5
      objectReference: {fileID: 0}
    - target: {fileID: 4000010475845846, guid: dbdd1cfbaf7431f4fa51a3590604bdd5, type: 2}
      propertyPath: m_LocalPosition.y
      value: 0
      objectReference: {fileID: 0}
    - target: {fileID: 4000010475845846, guid: dbdd1cfbaf7431f4fa51a3590604bdd5, type: 2}
      propertyPath: m_LocalPosition.z
      value: 0
      objectReference: {fileID: 0}
    - target: {fileID: 4000010475845846, guid: dbdd1cfbaf7431f4fa51a3590604bdd5, type: 2}
      propertyPath: m_LocalRotation.x
      value: 0
      objectReference: {fileID: 0}
    - target: {fileID: 4000010475845846, guid: dbdd1cfbaf7431f4fa51a3590604bdd5, type: 2}
      propertyPath: m_LocalRotation.y
      value: 0
      objectReference: {fileID: 0}
    - target: {fileID: 4000010475845846, guid: dbdd1cfbaf7431f4fa51a3590604bdd5, type: 2}
      propertyPath: m_LocalRotation.z
      value: 0
      objectReference: {fileID: 0}
    - target: {fileID: 4000010475845846, guid: dbdd1cfbaf7431f4fa51a3590604bdd5, type: 2}
      propertyPath: m_LocalRotation.w
      value: 1
      objectReference: {fileID: 0}
    - target: {fileID: 4000010475845846, guid: dbdd1cfbaf7431f4fa51a3590604bdd5, type: 2}
      propertyPath: m_RootOrder
      value: 5
      objectReference: {fileID: 0}
    - target: {fileID: 23000012924901364, guid: dbdd1cfbaf7431f4fa51a3590604bdd5,
        type: 2}
      propertyPath: m_Enabled
      value: 1
      objectReference: {fileID: 0}
    - target: {fileID: 4000010475845846, guid: dbdd1cfbaf7431f4fa51a3590604bdd5, type: 2}
      propertyPath: m_LocalEulerAnglesHint.y
      value: 0
      objectReference: {fileID: 0}
    m_RemovedComponents: []
  m_ParentPrefab: {fileID: 100100000, guid: dbdd1cfbaf7431f4fa51a3590604bdd5, type: 2}
  m_RootGameObject: {fileID: 2075032348}
  m_IsPrefabParent: 0
--- !u!1001 &1669746695
Prefab:
  m_ObjectHideFlags: 0
  serializedVersion: 2
  m_Modification:
    m_TransformParent: {fileID: 0}
    m_Modifications:
    - target: {fileID: 4000011912036508, guid: cadb7b884cfea364198536f2b0cd6999, type: 2}
      propertyPath: m_LocalPosition.x
      value: -10.5
      objectReference: {fileID: 0}
    - target: {fileID: 4000011912036508, guid: cadb7b884cfea364198536f2b0cd6999, type: 2}
      propertyPath: m_LocalPosition.y
      value: 0
      objectReference: {fileID: 0}
    - target: {fileID: 4000011912036508, guid: cadb7b884cfea364198536f2b0cd6999, type: 2}
      propertyPath: m_LocalPosition.z
      value: 0
      objectReference: {fileID: 0}
    - target: {fileID: 4000011912036508, guid: cadb7b884cfea364198536f2b0cd6999, type: 2}
      propertyPath: m_LocalRotation.x
      value: 0
      objectReference: {fileID: 0}
    - target: {fileID: 4000011912036508, guid: cadb7b884cfea364198536f2b0cd6999, type: 2}
      propertyPath: m_LocalRotation.y
      value: 0
      objectReference: {fileID: 0}
    - target: {fileID: 4000011912036508, guid: cadb7b884cfea364198536f2b0cd6999, type: 2}
      propertyPath: m_LocalRotation.z
      value: 0
      objectReference: {fileID: 0}
    - target: {fileID: 4000011912036508, guid: cadb7b884cfea364198536f2b0cd6999, type: 2}
      propertyPath: m_LocalRotation.w
      value: 1
      objectReference: {fileID: 0}
    - target: {fileID: 4000011912036508, guid: cadb7b884cfea364198536f2b0cd6999, type: 2}
      propertyPath: m_RootOrder
      value: 3
      objectReference: {fileID: 0}
    - target: {fileID: 23000012075041696, guid: cadb7b884cfea364198536f2b0cd6999,
        type: 2}
      propertyPath: m_Enabled
      value: 1
      objectReference: {fileID: 0}
    - target: {fileID: 4000011912036508, guid: cadb7b884cfea364198536f2b0cd6999, type: 2}
      propertyPath: m_LocalEulerAnglesHint.y
      value: 0
      objectReference: {fileID: 0}
    m_RemovedComponents: []
  m_ParentPrefab: {fileID: 100100000, guid: cadb7b884cfea364198536f2b0cd6999, type: 2}
  m_RootGameObject: {fileID: 1331493917}
  m_IsPrefabParent: 0
--- !u!1 &2066570270
GameObject:
  m_ObjectHideFlags: 0
  m_PrefabParentObject: {fileID: 1000011612236098, guid: e2cfa0db9aa4a7545a6ab6b61088ceab,
    type: 2}
  m_PrefabInternal: {fileID: 390094553}
  serializedVersion: 5
  m_Component:
  - component: {fileID: 2066570274}
  - component: {fileID: 2066570273}
  - component: {fileID: 2066570272}
  - component: {fileID: 2066570271}
  m_Layer: 0
  m_Name: ATM_Cyan
  m_TagString: Untagged
  m_Icon: {fileID: 0}
  m_NavMeshLayer: 0
  m_StaticEditorFlags: 0
  m_IsActive: 1
--- !u!64 &2066570271
MeshCollider:
  m_ObjectHideFlags: 0
  m_PrefabParentObject: {fileID: 64000010102909304, guid: e2cfa0db9aa4a7545a6ab6b61088ceab,
    type: 2}
  m_PrefabInternal: {fileID: 390094553}
  m_GameObject: {fileID: 2066570270}
  m_Material: {fileID: 0}
  m_IsTrigger: 0
  m_Enabled: 1
  serializedVersion: 3
  m_Convex: 0
  m_CookingOptions: 14
  m_SkinWidth: 0.01
  m_Mesh: {fileID: 4300000, guid: 9c9c01ea5d9bcf74db52c9818f202508, type: 3}
--- !u!23 &2066570272
MeshRenderer:
  m_ObjectHideFlags: 0
  m_PrefabParentObject: {fileID: 23000013255748716, guid: e2cfa0db9aa4a7545a6ab6b61088ceab,
    type: 2}
  m_PrefabInternal: {fileID: 390094553}
  m_GameObject: {fileID: 2066570270}
  m_Enabled: 1
  m_CastShadows: 1
  m_ReceiveShadows: 1
  m_DynamicOccludee: 1
  m_MotionVectors: 1
  m_LightProbeUsage: 1
  m_ReflectionProbeUsage: 1
  m_Materials:
  - {fileID: 2100000, guid: 82d545cb1c5b1d74c9399da5566d86b4, type: 2}
  m_StaticBatchInfo:
    firstSubMesh: 0
    subMeshCount: 0
  m_StaticBatchRoot: {fileID: 0}
  m_ProbeAnchor: {fileID: 0}
  m_LightProbeVolumeOverride: {fileID: 0}
  m_ScaleInLightmap: 1
  m_PreserveUVs: 0
  m_IgnoreNormalsForChartDetection: 0
  m_ImportantGI: 0
  m_StitchLightmapSeams: 0
  m_SelectedEditorRenderState: 3
  m_MinimumChartSize: 4
  m_AutoUVMaxDistance: 0.5
  m_AutoUVMaxAngle: 89
  m_LightmapParameters: {fileID: 0}
  m_SortingLayerID: 0
  m_SortingLayer: 0
  m_SortingOrder: 0
--- !u!33 &2066570273
MeshFilter:
  m_ObjectHideFlags: 0
  m_PrefabParentObject: {fileID: 33000011852169340, guid: e2cfa0db9aa4a7545a6ab6b61088ceab,
    type: 2}
  m_PrefabInternal: {fileID: 390094553}
  m_GameObject: {fileID: 2066570270}
  m_Mesh: {fileID: 4300000, guid: 9c9c01ea5d9bcf74db52c9818f202508, type: 3}
--- !u!4 &2066570274
Transform:
  m_ObjectHideFlags: 0
  m_PrefabParentObject: {fileID: 4000010658531238, guid: e2cfa0db9aa4a7545a6ab6b61088ceab,
    type: 2}
  m_PrefabInternal: {fileID: 390094553}
  m_GameObject: {fileID: 2066570270}
  m_LocalRotation: {x: 0, y: 0, z: 0, w: 1}
  m_LocalPosition: {x: -4.5, y: 0, z: 0}
  m_LocalScale: {x: 1, y: 1, z: 1}
  m_Children: []
  m_Father: {fileID: 0}
  m_RootOrder: 7
  m_LocalEulerAnglesHint: {x: 0, y: 0, z: 0}
--- !u!1 &2075032348
GameObject:
  m_ObjectHideFlags: 0
  m_PrefabParentObject: {fileID: 1000011470600780, guid: dbdd1cfbaf7431f4fa51a3590604bdd5,
    type: 2}
  m_PrefabInternal: {fileID: 1664173725}
  serializedVersion: 5
  m_Component:
  - component: {fileID: 2075032352}
  - component: {fileID: 2075032351}
  - component: {fileID: 2075032350}
  - component: {fileID: 2075032349}
  m_Layer: 0
  m_Name: ATM_Green
  m_TagString: Untagged
  m_Icon: {fileID: 0}
  m_NavMeshLayer: 0
  m_StaticEditorFlags: 0
  m_IsActive: 1
--- !u!64 &2075032349
MeshCollider:
  m_ObjectHideFlags: 0
  m_PrefabParentObject: {fileID: 64000010619868900, guid: dbdd1cfbaf7431f4fa51a3590604bdd5,
    type: 2}
  m_PrefabInternal: {fileID: 1664173725}
  m_GameObject: {fileID: 2075032348}
  m_Material: {fileID: 0}
  m_IsTrigger: 0
  m_Enabled: 1
  serializedVersion: 3
  m_Convex: 0
  m_CookingOptions: 14
  m_SkinWidth: 0.01
  m_Mesh: {fileID: 4300000, guid: 9c9c01ea5d9bcf74db52c9818f202508, type: 3}
--- !u!23 &2075032350
MeshRenderer:
  m_ObjectHideFlags: 0
  m_PrefabParentObject: {fileID: 23000012924901364, guid: dbdd1cfbaf7431f4fa51a3590604bdd5,
    type: 2}
  m_PrefabInternal: {fileID: 1664173725}
  m_GameObject: {fileID: 2075032348}
  m_Enabled: 1
  m_CastShadows: 1
  m_ReceiveShadows: 1
  m_DynamicOccludee: 1
  m_MotionVectors: 1
  m_LightProbeUsage: 1
  m_ReflectionProbeUsage: 1
  m_Materials:
  - {fileID: 2100000, guid: d3f139023cb4911499b7c10a0929e591, type: 2}
  m_StaticBatchInfo:
    firstSubMesh: 0
    subMeshCount: 0
  m_StaticBatchRoot: {fileID: 0}
  m_ProbeAnchor: {fileID: 0}
  m_LightProbeVolumeOverride: {fileID: 0}
  m_ScaleInLightmap: 1
  m_PreserveUVs: 0
  m_IgnoreNormalsForChartDetection: 0
  m_ImportantGI: 0
  m_StitchLightmapSeams: 0
  m_SelectedEditorRenderState: 3
  m_MinimumChartSize: 4
  m_AutoUVMaxDistance: 0.5
  m_AutoUVMaxAngle: 89
  m_LightmapParameters: {fileID: 0}
  m_SortingLayerID: 0
  m_SortingLayer: 0
  m_SortingOrder: 0
--- !u!33 &2075032351
MeshFilter:
  m_ObjectHideFlags: 0
  m_PrefabParentObject: {fileID: 33000011460286596, guid: dbdd1cfbaf7431f4fa51a3590604bdd5,
    type: 2}
  m_PrefabInternal: {fileID: 1664173725}
  m_GameObject: {fileID: 2075032348}
  m_Mesh: {fileID: 4300000, guid: 9c9c01ea5d9bcf74db52c9818f202508, type: 3}
--- !u!4 &2075032352
Transform:
  m_ObjectHideFlags: 0
  m_PrefabParentObject: {fileID: 4000010475845846, guid: dbdd1cfbaf7431f4fa51a3590604bdd5,
    type: 2}
  m_PrefabInternal: {fileID: 1664173725}
  m_GameObject: {fileID: 2075032348}
  m_LocalRotation: {x: 0, y: 0, z: 0, w: 1}
  m_LocalPosition: {x: -7.5, y: 0, z: 0}
  m_LocalScale: {x: 1, y: 1, z: 1}
  m_Children: []
  m_Father: {fileID: 0}
  m_RootOrder: 5
  m_LocalEulerAnglesHint: {x: 0, y: 0, z: 0}
--- !u!1001 &2138979787
Prefab:
  m_ObjectHideFlags: 0
  serializedVersion: 2
  m_Modification:
    m_TransformParent: {fileID: 0}
    m_Modifications:
    - target: {fileID: 4000010984663340, guid: 706e6270ca3a68a46a4455daaeaeafd1, type: 2}
      propertyPath: m_LocalPosition.x
      value: -6
      objectReference: {fileID: 0}
    - target: {fileID: 4000010984663340, guid: 706e6270ca3a68a46a4455daaeaeafd1, type: 2}
      propertyPath: m_LocalPosition.y
      value: 0
      objectReference: {fileID: 0}
    - target: {fileID: 4000010984663340, guid: 706e6270ca3a68a46a4455daaeaeafd1, type: 2}
      propertyPath: m_LocalPosition.z
      value: 0
      objectReference: {fileID: 0}
    - target: {fileID: 4000010984663340, guid: 706e6270ca3a68a46a4455daaeaeafd1, type: 2}
      propertyPath: m_LocalRotation.x
      value: 0
      objectReference: {fileID: 0}
    - target: {fileID: 4000010984663340, guid: 706e6270ca3a68a46a4455daaeaeafd1, type: 2}
      propertyPath: m_LocalRotation.y
      value: 0
      objectReference: {fileID: 0}
    - target: {fileID: 4000010984663340, guid: 706e6270ca3a68a46a4455daaeaeafd1, type: 2}
      propertyPath: m_LocalRotation.z
      value: 0
      objectReference: {fileID: 0}
    - target: {fileID: 4000010984663340, guid: 706e6270ca3a68a46a4455daaeaeafd1, type: 2}
      propertyPath: m_LocalRotation.w
      value: 1
      objectReference: {fileID: 0}
    - target: {fileID: 4000010984663340, guid: 706e6270ca3a68a46a4455daaeaeafd1, type: 2}
      propertyPath: m_RootOrder
      value: 6
      objectReference: {fileID: 0}
    - target: {fileID: 23000012634068266, guid: 706e6270ca3a68a46a4455daaeaeafd1,
        type: 2}
      propertyPath: m_Enabled
      value: 1
      objectReference: {fileID: 0}
    - target: {fileID: 4000010984663340, guid: 706e6270ca3a68a46a4455daaeaeafd1, type: 2}
      propertyPath: m_LocalEulerAnglesHint.y
      value: 0
      objectReference: {fileID: 0}
    m_RemovedComponents: []
  m_ParentPrefab: {fileID: 100100000, guid: 706e6270ca3a68a46a4455daaeaeafd1, type: 2}
  m_RootGameObject: {fileID: 1075385651}
  m_IsPrefabParent: 0
